SplineFontDB: 3.2
FontName: Untitled1
FullName: Untitled1
FamilyName: Untitled1
Weight: Regular
Copyright: Copyright (c) 2024, GURL_BOSS_GolD
UComments: "2024-1-9: Created with FontForge (http://fontforge.org)"
Version: 001.000
ItalicAngle: 0
UnderlinePosition: -100
UnderlineWidth: 50
Ascent: 800
Descent: 200
InvalidEm: 0
LayerCount: 3
Layer: 0 0 "Back" 1
Layer: 1 0 "Fore" 0
Layer: 2 0 "Back 2" 0
XUID: [1021 633 748895350 9426959]
OS2Version: 0
OS2_WeightWidthSlopeOnly: 0
OS2_UseTypoMetrics: 1
CreationTime: 1704822917
ModificationTime: 1704823103
OS2TypoAscent: 0
OS2TypoAOffset: 1
OS2TypoDescent: 0
OS2TypoDOffset: 1
OS2TypoLinegap: 0
OS2WinAscent: 0
OS2WinAOffset: 1
OS2WinDescent: 0
OS2WinDOffset: 1
HheadAscent: 0
HheadAOffset: 1
HheadDescent: 0
HheadDOffset: 1
OS2Vendor: 'PfEd'
DEI: 91125
Encoding: ISO8859-1
UnicodeInterp: none
NameList: AGL For New Fonts
DisplaySize: -48
AntiAlias: 1
FitToEm: 0
WinInfo: 0 38 13
BeginChars: 256 2

StartChar: A
Encoding: 65 65 0
Width: 1000
InSpiro: 1
Flags: H
LayerCount: 3
Fore
SplineSet
-504 1094 m 1051
  Spiro
    -504 1094 {
    0 0 z
  EndSpiro
484 412 m 1
 376 412 l 0
 264 376 l 0
 92 348 l 1025
  Spiro
    484 412 {
    376 412 o
    264 376 o
    92 348 v
    0 0 z
  EndSpiro
288 840 m 1
 318 786 l 0
 335.597666165 747.492365785 370.597667767 721.744019588 378 684 c 0
 376.735195135 666.969038901 377.716819724 647.646104891 392 636 c 0
 410.664086879 606.847983585 423.6843696 581.021493415 440 552 c 0
 452.109038499 532.877772866 458.392950862 509.222799328 468 488 c 0
 486.999952045 462.44473675 497.712421315 435.73927322 498 404 c 0
 500.647312244 372.600845642 507.100111709 342.038424618 514 312 c 0
 529.847607779 255.100339466 534.34933093 196.131228254 558 140 c 0
 565.363676546 95.2884776741 584.404952924 60.2263821156 610 24 c 0
 642.651082262 -19.341316977 662.842546896 -69.8928788807 682 -122 c 0
 712.736461342 -163.345845037 718.553004619 -236.646429589 756 -264 c 1024
  Spiro
    288 840 {
    318 786 [
    339.708 750.861 o
    363.086 718.63 o
    378 684 o
    377.892 666.592 o
    381.748 649.82 o
    392 636 o
    409.098 607.743 o
    424.467 580.17 o
    440 552 o
    450.497 531.646 o
    459.17 509.753 o
    468 488 o
    484.145 461.944 o
    494.324 434.176 o
    498 404 o
    501.787 372.899 o
    507.38 342.194 o
    514 312 o
    527.183 254.65 o
    539.617 196.838 o
    558 140 o
    569.052 98.1439 o
    586.8 60.2021 o
    610 24 o
    638.895 -21.4878 o
    662.096 -70.6713 o
    682 -122 o
    706.504 -171.058 o
    727.025 -224.265 o
    756 -264 o
    0 0 z
  EndSpiro
196 1060 m 1
 294 840 l 0
 297.416878054 812.832853818 299.349946814 784.146517654 310 760 c 0
 310 753.333333333 310 746.666666667 310 740 c 0
 312.971015651 715.554354355 326.995075451 693.145383484 326 668 c 0
 331.852428075 639.211485981 313.141299332 621.023827999 306 596 c 0
 282.05293415 548.767198261 251.185121048 510.302837277 228 460 c 0
 203.594477667 421.269566281 190.541661733 379.015938419 174 338 c 0
 153.045528596 287.07643092 151.745286897 233.624357692 154 178 c 0
 158.155662465 107.647662666 156.864532295 29.9025610084 96 -16 c 0
 90 -18 l 1025
  Spiro
    196 1060 {
    294 840 [
    297.297 812.578 o
    301.884 785.409 o
    310 760 o
    310 740 o
    315.682 716.08 o
    322.96 692.386 o
    326 668 o
    325.009 642.123 o
    315.649 619.369 o
    306 596 o
    280.314 550.97 o
    253.178 507.075 o
    228 460 o
    206.848 420.312 o
    189.913 379.211 o
    174 338 o
    159.01 286.299 o
    153.525 232.833 o
    154 178 o
    154.341 106.707 o
    138.984 39.0008 o
    96 -16 ]
    90 -18 v
    0 0 z
  EndSpiro
EndSplineSet
EndChar

StartChar: questiondown
Encoding: 191 191 1
Width: 1000
LayerCount: 3
Fore
SplineSet
87 571 m 24,0,1
 82.5 521 82.5 521 87 472 c 24,2,3
 96.5 461.5 96.5 461.5 114 458 c 1052
119 617 m 1024
  Spiro
    119 617 {
    0 0 z
  EndSpiro
EndSplineSet
EndChar
EndChars
EndSplineFont
