[gd_scene load_steps=2 format=3 uid="uid://bte3rb36w5gtj"]

[ext_resource type="Script" path="res://level select/level select2.gd" id="1_xnh7w"]

[node name="Cat Select" type="Control"]
layout_mode = 3
anchors_preset = 15
anchor_right = 1.0
anchor_bottom = 1.0
offset_left = 1.0
offset_top = -2.0
offset_right = 4.0
offset_bottom = -3.0
grow_horizontal = 2
grow_vertical = 2
script = ExtResource("1_xnh7w")

[node name="lvl5" type="Button" parent="."]
layout_mode = 0
offset_left = 432.0
offset_top = 180.0
offset_right = 598.0
offset_bottom = 338.0
text = "SqurrielFlight"

[node name="lvl7" type="Button" parent="."]
layout_mode = 0
offset_left = 280.0
offset_top = 180.0
offset_right = 426.0
offset_bottom = 332.0
text = "JayFeather"

[node name="lvl9" type="Button" parent="."]
layout_mode = 0
offset_left = 604.0
offset_top = 185.0
offset_right = 774.0
offset_bottom = 338.0
text = "ShadowSight"
